{
  "cordova-plugin-whitelist": {
    "source": {
      "type": "registry",
      "id": "cordova-plugin-whitelist@1"
    },
    "is_top_level": true,
    "variables": {}
  },
  "cordova-plugin-device": {
    "source": {
      "type": "registry",
      "id": "cordova-plugin-device"
    },
    "is_top_level": true,
    "variables": {}
  },
  "cordova-plugin-fcm-with-dependecy-updated": {
    "source": {
      "type": "registry",
      "id": "cordova-plugin-fcm-with-dependecy-updated"
    },
    "is_top_level": true,
    "variables": {}
  },
  "cordova-plugin-splashscreen": {
    "source": {
      "type": "registry",
      "id": "cordova-plugin-splashscreen@5.0.3"
    },
    "is_top_level": true,
    "variables": {}
  },
  "cordova-plugin-camera": {
    "source": {
      "type": "registry",
      "id": "cordova-plugin-camera@4.1.0"
    },
    "is_top_level": true,
    "variables": {}
  },
  "com.lihau.multiimagepicker": {
    "source": {
      "type": "registry",
      "id": "multi-image-picker"
    },
    "is_top_level": true,
    "variables": {}
  },
  "cordova-plugin-media-capture": {
    "source": {
      "type": "registry",
      "id": "cordova-plugin-media-capture@3.0.3"
    },
    "is_top_level": true,
    "variables": {}
  },
  "cordova-plugin-file": {
    "source": {
      "type": "registry",
      "id": "cordova-plugin-file@^6.0.0"
    },
    "is_top_level": false,
    "variables": {}
  },
  "cordova-plugin-mediapicker-dmcsdk": {
    "source": {
      "type": "registry",
      "id": "https://github.com/DmcSDK/cordova-plugin-mediaPicker.git"
    },
    "is_top_level": true,
    "variables": {
      "IOS_PHOTO_LIBRARY_USAGE_DESCRIPTION": "for images upload"
    }
  }
}