-- Merging decision tree log ---
provider#org.apache.cordova.camera.FileProvider
INJECTED from D:\profixApp\platforms\android\app\src\main\AndroidManifest.xml:28:9-30:20
	android:grantUriPermissions
		ADDED from D:\profixApp\platforms\android\app\src\main\AndroidManifest.xml:28:92-126
	android:authorities
		INJECTED from D:\profixApp\platforms\android\app\src\main\AndroidManifest.xml
		ADDED from D:\profixApp\platforms\android\app\src\main\AndroidManifest.xml:28:19-66
	android:exported
		ADDED from D:\profixApp\platforms\android\app\src\main\AndroidManifest.xml:28:67-91
	android:name
		ADDED from D:\profixApp\platforms\android\app\src\main\AndroidManifest.xml:28:127-180
manifest
ADDED from D:\profixApp\platforms\android\app\src\main\AndroidManifest.xml:2:1-38:12
INJECTED from D:\profixApp\platforms\android\app\src\main\AndroidManifest.xml:2:1-38:12
INJECTED from D:\profixApp\platforms\android\app\src\main\AndroidManifest.xml:2:1-38:12
INJECTED from D:\profixApp\platforms\android\app\src\main\AndroidManifest.xml:2:1-38:12
MERGED from [com.google.firebase:firebase-core:10.2.6] C:\Users\viva\.gradle\caches\transforms-1\files-1.1\firebase-core-10.2.6.aar\61ee53f593db94bf593c4e5b3d01e20e\AndroidManifest.xml:2:1-6:12
MERGED from [com.google.firebase:firebase-messaging:10.2.6] C:\Users\viva\.gradle\caches\transforms-1\files-1.1\firebase-messaging-10.2.6.aar\1339668ab1828b1c8fb65d6b5f834601\AndroidManifest.xml:16:1-30:12
MERGED from [com.dmcBig:mediapicker:3.2] C:\Users\viva\.gradle\caches\transforms-1\files-1.1\mediapicker-3.2.aar\cad161de90bd45387faa107925c6114a\AndroidManifest.xml:2:1-44:12
MERGED from [com.google.firebase:firebase-analytics:10.2.6] C:\Users\viva\.gradle\caches\transforms-1\files-1.1\firebase-analytics-10.2.6.aar\2703d2c55030dd418e6e3b0e61ae4d4e\AndroidManifest.xml:16:1-34:12
MERGED from [com.google.firebase:firebase-analytics-impl:10.2.6] C:\Users\viva\.gradle\caches\transforms-1\files-1.1\firebase-analytics-impl-10.2.6.aar\3b71f50b6e0a4b2fcc3bc1ee3c4c1abd\AndroidManifest.xml:16:1-29:12
MERGED from [com.google.firebase:firebase-iid:10.2.6] C:\Users\viva\.gradle\caches\transforms-1\files-1.1\firebase-iid-10.2.6.aar\43e55bb9963e8187f8e85b352a17841e\AndroidManifest.xml:16:1-50:12
MERGED from [com.google.firebase:firebase-common:10.2.6] C:\Users\viva\.gradle\caches\transforms-1\files-1.1\firebase-common-10.2.6.aar\fe10682d0031f0ed4632017af6d74028\AndroidManifest.xml:2:1-8:12
MERGED from [com.google.android.gms:play-services-tasks:10.2.6] C:\Users\viva\.gradle\caches\transforms-1\files-1.1\play-services-tasks-10.2.6.aar\08e180117840da06717317d292586654\AndroidManifest.xml:2:1-5:12
MERGED from [com.google.android.gms:play-services-basement:10.2.6] C:\Users\viva\.gradle\caches\transforms-1\files-1.1\play-services-basement-10.2.6.aar\d1b74aa498130f666febb84c4ddfce93\AndroidManifest.xml:16:1-23:12
MERGED from [com.github.chrisbanes.photoview:library:1.2.4] C:\Users\viva\.gradle\caches\transforms-1\files-1.1\library-1.2.4.aar\651c46c16a697b65f6d4a6388269cf18\AndroidManifest.xml:2:1-11:12
MERGED from [com.android.support:appcompat-v7:25.3.1] C:\Users\viva\.gradle\caches\transforms-1\files-1.1\appcompat-v7-25.3.1.aar\dabd7c2681ed9cfbbe7642b19d1f301a\AndroidManifest.xml:17:1-31:12
MERGED from [com.android.support:support-v4:27.1.1] C:\Users\viva\.gradle\caches\transforms-1\files-1.1\support-v4-27.1.1.aar\b3b2696ffe704867bb1fb6a638a673bc\AndroidManifest.xml:17:1-22:12
MERGED from [:CordovaLib] D:\profixApp\platforms\android\CordovaLib\build\intermediates\manifests\full\debug\AndroidManifest.xml:20:1-27:12
MERGED from [com.android.support:recyclerview-v7:25.3.1] C:\Users\viva\.gradle\caches\transforms-1\files-1.1\recyclerview-v7-25.3.1.aar\501e2e0ca12c66f8e037e3765611c7c7\AndroidManifest.xml:17:1-26:12
MERGED from [com.android.support:support-media-compat:27.1.1] C:\Users\viva\.gradle\caches\transforms-1\files-1.1\support-media-compat-27.1.1.aar\cea39c389dbe50a0a15d43db2023ce8b\AndroidManifest.xml:17:1-22:12
MERGED from [com.android.support:support-fragment:27.1.1] C:\Users\viva\.gradle\caches\transforms-1\files-1.1\support-fragment-27.1.1.aar\77fb7276bd24ff283aa1ecb211ce2528\AndroidManifest.xml:17:1-22:12
MERGED from [com.android.support:support-core-ui:27.1.1] C:\Users\viva\.gradle\caches\transforms-1\files-1.1\support-core-ui-27.1.1.aar\4ba73f6dd44e9a6266fc688314dcc3cb\AndroidManifest.xml:17:1-22:12
MERGED from [com.android.support:support-core-utils:27.1.1] C:\Users\viva\.gradle\caches\transforms-1\files-1.1\support-core-utils-27.1.1.aar\a3cb448e65e6f0dd57eea23c1ff11f44\AndroidManifest.xml:17:1-22:12
MERGED from [com.android.support:animated-vector-drawable:25.3.1] C:\Users\viva\.gradle\caches\transforms-1\files-1.1\animated-vector-drawable-25.3.1.aar\ea50d2e9a391af98d83ce90d9e5ae405\AndroidManifest.xml:17:1-28:12
MERGED from [com.android.support:support-vector-drawable:25.3.1] C:\Users\viva\.gradle\caches\transforms-1\files-1.1\support-vector-drawable-25.3.1.aar\9773528cef13a3be6fc39b7019ef741b\AndroidManifest.xml:17:1-28:12
MERGED from [com.android.support:support-compat:27.1.1] C:\Users\viva\.gradle\caches\transforms-1\files-1.1\support-compat-27.1.1.aar\b76fbae6dc9788fdf4fba91cbfd79403\AndroidManifest.xml:17:1-22:12
MERGED from [pub.devrel:easypermissions:1.0.0] C:\Users\viva\.gradle\caches\transforms-1\files-1.1\easypermissions-1.0.0.aar\7541521b85c1f24bcad9a9723a0ef4d0\AndroidManifest.xml:2:1-19:12
MERGED from [android.arch.lifecycle:livedata-core:1.1.0] C:\Users\viva\.gradle\caches\transforms-1\files-1.1\livedata-core-1.1.0.aar\842d37cf7cf62bfc246022c3d997a75d\AndroidManifest.xml:17:1-22:12
MERGED from [android.arch.lifecycle:viewmodel:1.1.0] C:\Users\viva\.gradle\caches\transforms-1\files-1.1\viewmodel-1.1.0.aar\a4e57d1dfbd75878d857c4e8649f10eb\AndroidManifest.xml:17:1-22:12
MERGED from [android.arch.lifecycle:runtime:1.1.0] C:\Users\viva\.gradle\caches\transforms-1\files-1.1\runtime-1.1.0.aar\265b45b6090759693f308fae6affab55\AndroidManifest.xml:17:1-22:12
MERGED from [android.arch.core:runtime:1.1.0] C:\Users\viva\.gradle\caches\transforms-1\files-1.1\runtime-1.1.0.aar\063fa8672c6950108fbfd704f821bae1\AndroidManifest.xml:17:1-22:12
INJECTED from D:\profixApp\platforms\android\app\src\main\AndroidManifest.xml:2:1-38:12
INJECTED from D:\profixApp\platforms\android\app\src\main\AndroidManifest.xml:2:1-38:12
INJECTED from D:\profixApp\platforms\android\app\src\main\AndroidManifest.xml:2:1-38:12
	package
		ADDED from D:\profixApp\platforms\android\app\src\main\AndroidManifest.xml:2:102-135
		INJECTED from D:\profixApp\platforms\android\app\src\main\AndroidManifest.xml
		INJECTED from D:\profixApp\platforms\android\app\src\main\AndroidManifest.xml
	android:versionName
		ADDED from D:\profixApp\platforms\android\app\src\main\AndroidManifest.xml:2:74-101
		INJECTED from D:\profixApp\platforms\android\app\src\main\AndroidManifest.xml
		INJECTED from D:\profixApp\platforms\android\app\src\main\AndroidManifest.xml
	android:hardwareAccelerated
		ADDED from D:\profixApp\platforms\android\app\src\main\AndroidManifest.xml:2:11-45
	xmlns:android
		ADDED from D:\profixApp\platforms\android\app\src\main\AndroidManifest.xml:2:136-194
	android:versionCode
		ADDED from D:\profixApp\platforms\android\app\src\main\AndroidManifest.xml:2:46-73
		INJECTED from D:\profixApp\platforms\android\app\src\main\AndroidManifest.xml
		INJECTED from D:\profixApp\platforms\android\app\src\main\AndroidManifest.xml
supports-screens
ADDED from D:\profixApp\platforms\android\app\src\main\AndroidManifest.xml:3:5-191
	android:largeScreens
		ADDED from D:\profixApp\platforms\android\app\src\main\AndroidManifest.xml:3:49-76
	android:smallScreens
		ADDED from D:\profixApp\platforms\android\app\src\main\AndroidManifest.xml:3:132-159
	android:normalScreens
		ADDED from D:\profixApp\platforms\android\app\src\main\AndroidManifest.xml:3:77-105
	android:xlargeScreens
		ADDED from D:\profixApp\platforms\android\app\src\main\AndroidManifest.xml:3:160-188
	android:resizeable
		ADDED from D:\profixApp\platforms\android\app\src\main\AndroidManifest.xml:3:106-131
	android:anyDensity
		ADDED from D:\profixApp\platforms\android\app\src\main\AndroidManifest.xml:3:23-48
uses-permission#android.permission.INTERNET
ADDED from D:\profixApp\platforms\android\app\src\main\AndroidManifest.xml:4:5-67
MERGED from [com.google.firebase:firebase-analytics:10.2.6] C:\Users\viva\.gradle\caches\transforms-1\files-1.1\firebase-analytics-10.2.6.aar\2703d2c55030dd418e6e3b0e61ae4d4e\AndroidManifest.xml:20:5-66
MERGED from [com.google.firebase:firebase-analytics:10.2.6] C:\Users\viva\.gradle\caches\transforms-1\files-1.1\firebase-analytics-10.2.6.aar\2703d2c55030dd418e6e3b0e61ae4d4e\AndroidManifest.xml:20:5-66
MERGED from [com.google.firebase:firebase-analytics-impl:10.2.6] C:\Users\viva\.gradle\caches\transforms-1\files-1.1\firebase-analytics-impl-10.2.6.aar\3b71f50b6e0a4b2fcc3bc1ee3c4c1abd\AndroidManifest.xml:20:5-66
MERGED from [com.google.firebase:firebase-analytics-impl:10.2.6] C:\Users\viva\.gradle\caches\transforms-1\files-1.1\firebase-analytics-impl-10.2.6.aar\3b71f50b6e0a4b2fcc3bc1ee3c4c1abd\AndroidManifest.xml:20:5-66
MERGED from [com.google.firebase:firebase-iid:10.2.6] C:\Users\viva\.gradle\caches\transforms-1\files-1.1\firebase-iid-10.2.6.aar\43e55bb9963e8187f8e85b352a17841e\AndroidManifest.xml:20:5-66
MERGED from [com.google.firebase:firebase-iid:10.2.6] C:\Users\viva\.gradle\caches\transforms-1\files-1.1\firebase-iid-10.2.6.aar\43e55bb9963e8187f8e85b352a17841e\AndroidManifest.xml:20:5-66
	android:name
		ADDED from D:\profixApp\platforms\android\app\src\main\AndroidManifest.xml:4:22-64
application
ADDED from D:\profixApp\platforms\android\app\src\main\AndroidManifest.xml:5:5-32:19
MERGED from [com.google.firebase:firebase-core:10.2.6] C:\Users\viva\.gradle\caches\transforms-1\files-1.1\firebase-core-10.2.6.aar\61ee53f593db94bf593c4e5b3d01e20e\AndroidManifest.xml:5:5-20
MERGED from [com.google.firebase:firebase-core:10.2.6] C:\Users\viva\.gradle\caches\transforms-1\files-1.1\firebase-core-10.2.6.aar\61ee53f593db94bf593c4e5b3d01e20e\AndroidManifest.xml:5:5-20
MERGED from [com.google.firebase:firebase-messaging:10.2.6] C:\Users\viva\.gradle\caches\transforms-1\files-1.1\firebase-messaging-10.2.6.aar\1339668ab1828b1c8fb65d6b5f834601\AndroidManifest.xml:19:5-29:19
MERGED from [com.google.firebase:firebase-messaging:10.2.6] C:\Users\viva\.gradle\caches\transforms-1\files-1.1\firebase-messaging-10.2.6.aar\1339668ab1828b1c8fb65d6b5f834601\AndroidManifest.xml:19:5-29:19
MERGED from [com.dmcBig:mediapicker:3.2] C:\Users\viva\.gradle\caches\transforms-1\files-1.1\mediapicker-3.2.aar\cad161de90bd45387faa107925c6114a\AndroidManifest.xml:14:5-42:19
MERGED from [com.dmcBig:mediapicker:3.2] C:\Users\viva\.gradle\caches\transforms-1\files-1.1\mediapicker-3.2.aar\cad161de90bd45387faa107925c6114a\AndroidManifest.xml:14:5-42:19
MERGED from [com.google.firebase:firebase-analytics:10.2.6] C:\Users\viva\.gradle\caches\transforms-1\files-1.1\firebase-analytics-10.2.6.aar\2703d2c55030dd418e6e3b0e61ae4d4e\AndroidManifest.xml:24:5-33:19
MERGED from [com.google.firebase:firebase-analytics:10.2.6] C:\Users\viva\.gradle\caches\transforms-1\files-1.1\firebase-analytics-10.2.6.aar\2703d2c55030dd418e6e3b0e61ae4d4e\AndroidManifest.xml:24:5-33:19
MERGED from [com.google.firebase:firebase-analytics-impl:10.2.6] C:\Users\viva\.gradle\caches\transforms-1\files-1.1\firebase-analytics-impl-10.2.6.aar\3b71f50b6e0a4b2fcc3bc1ee3c4c1abd\AndroidManifest.xml:24:5-28:19
MERGED from [com.google.firebase:firebase-analytics-impl:10.2.6] C:\Users\viva\.gradle\caches\transforms-1\files-1.1\firebase-analytics-impl-10.2.6.aar\3b71f50b6e0a4b2fcc3bc1ee3c4c1abd\AndroidManifest.xml:24:5-28:19
MERGED from [com.google.firebase:firebase-iid:10.2.6] C:\Users\viva\.gradle\caches\transforms-1\files-1.1\firebase-iid-10.2.6.aar\43e55bb9963e8187f8e85b352a17841e\AndroidManifest.xml:28:5-49:19
MERGED from [com.google.firebase:firebase-iid:10.2.6] C:\Users\viva\.gradle\caches\transforms-1\files-1.1\firebase-iid-10.2.6.aar\43e55bb9963e8187f8e85b352a17841e\AndroidManifest.xml:28:5-49:19
MERGED from [com.google.firebase:firebase-common:10.2.6] C:\Users\viva\.gradle\caches\transforms-1\files-1.1\firebase-common-10.2.6.aar\fe10682d0031f0ed4632017af6d74028\AndroidManifest.xml:4:5-7:19
MERGED from [com.google.firebase:firebase-common:10.2.6] C:\Users\viva\.gradle\caches\transforms-1\files-1.1\firebase-common-10.2.6.aar\fe10682d0031f0ed4632017af6d74028\AndroidManifest.xml:4:5-7:19
MERGED from [com.google.android.gms:play-services-tasks:10.2.6] C:\Users\viva\.gradle\caches\transforms-1\files-1.1\play-services-tasks-10.2.6.aar\08e180117840da06717317d292586654\AndroidManifest.xml:4:5-19
MERGED from [com.google.android.gms:play-services-tasks:10.2.6] C:\Users\viva\.gradle\caches\transforms-1\files-1.1\play-services-tasks-10.2.6.aar\08e180117840da06717317d292586654\AndroidManifest.xml:4:5-19
MERGED from [com.google.android.gms:play-services-basement:10.2.6] C:\Users\viva\.gradle\caches\transforms-1\files-1.1\play-services-basement-10.2.6.aar\d1b74aa498130f666febb84c4ddfce93\AndroidManifest.xml:19:5-21:19
MERGED from [com.google.android.gms:play-services-basement:10.2.6] C:\Users\viva\.gradle\caches\transforms-1\files-1.1\play-services-basement-10.2.6.aar\d1b74aa498130f666febb84c4ddfce93\AndroidManifest.xml:19:5-21:19
MERGED from [com.android.support:appcompat-v7:25.3.1] C:\Users\viva\.gradle\caches\transforms-1\files-1.1\appcompat-v7-25.3.1.aar\dabd7c2681ed9cfbbe7642b19d1f301a\AndroidManifest.xml:29:5-20
MERGED from [com.android.support:appcompat-v7:25.3.1] C:\Users\viva\.gradle\caches\transforms-1\files-1.1\appcompat-v7-25.3.1.aar\dabd7c2681ed9cfbbe7642b19d1f301a\AndroidManifest.xml:29:5-20
MERGED from [com.android.support:animated-vector-drawable:25.3.1] C:\Users\viva\.gradle\caches\transforms-1\files-1.1\animated-vector-drawable-25.3.1.aar\ea50d2e9a391af98d83ce90d9e5ae405\AndroidManifest.xml:26:5-20
MERGED from [com.android.support:animated-vector-drawable:25.3.1] C:\Users\viva\.gradle\caches\transforms-1\files-1.1\animated-vector-drawable-25.3.1.aar\ea50d2e9a391af98d83ce90d9e5ae405\AndroidManifest.xml:26:5-20
MERGED from [com.android.support:support-vector-drawable:25.3.1] C:\Users\viva\.gradle\caches\transforms-1\files-1.1\support-vector-drawable-25.3.1.aar\9773528cef13a3be6fc39b7019ef741b\AndroidManifest.xml:26:5-20
MERGED from [com.android.support:support-vector-drawable:25.3.1] C:\Users\viva\.gradle\caches\transforms-1\files-1.1\support-vector-drawable-25.3.1.aar\9773528cef13a3be6fc39b7019ef741b\AndroidManifest.xml:26:5-20
MERGED from [pub.devrel:easypermissions:1.0.0] C:\Users\viva\.gradle\caches\transforms-1\files-1.1\easypermissions-1.0.0.aar\7541521b85c1f24bcad9a9723a0ef4d0\AndroidManifest.xml:11:5-17:19
MERGED from [pub.devrel:easypermissions:1.0.0] C:\Users\viva\.gradle\caches\transforms-1\files-1.1\easypermissions-1.0.0.aar\7541521b85c1f24bcad9a9723a0ef4d0\AndroidManifest.xml:11:5-17:19
	android:supportsRtl
		ADDED from D:\profixApp\platforms\android\app\src\main\AndroidManifest.xml:5:114-140
	android:label
		ADDED from D:\profixApp\platforms\android\app\src\main\AndroidManifest.xml:5:81-113
	android:hardwareAccelerated
		ADDED from D:\profixApp\platforms\android\app\src\main\AndroidManifest.xml:5:18-52
	android:allowBackup
		ADDED from [com.dmcBig:mediapicker:3.2] C:\Users\viva\.gradle\caches\transforms-1\files-1.1\mediapicker-3.2.aar\cad161de90bd45387faa107925c6114a\AndroidManifest.xml:15:9-35
	android:icon
		ADDED from D:\profixApp\platforms\android\app\src\main\AndroidManifest.xml:5:53-80
activity#com.cordova.profixadmin.MainActivity
ADDED from D:\profixApp\platforms\android\app\src\main\AndroidManifest.xml:6:9-11:20
	android:label
		ADDED from D:\profixApp\platforms\android\app\src\main\AndroidManifest.xml:6:97-134
	android:launchMode
		ADDED from D:\profixApp\platforms\android\app\src\main\AndroidManifest.xml:6:135-165
	android:windowSoftInputMode
		ADDED from D:\profixApp\platforms\android\app\src\main\AndroidManifest.xml:6:257-299
	android:configChanges
		ADDED from D:\profixApp\platforms\android\app\src\main\AndroidManifest.xml:6:19-96
	android:theme
		ADDED from D:\profixApp\platforms\android\app\src\main\AndroidManifest.xml:6:194-256
	android:name
		ADDED from D:\profixApp\platforms\android\app\src\main\AndroidManifest.xml:6:166-193
intent-filter#android.intent.action.MAIN+android.intent.category.LAUNCHER
ADDED from D:\profixApp\platforms\android\app\src\main\AndroidManifest.xml:7:13-10:29
	android:label
		ADDED from D:\profixApp\platforms\android\app\src\main\AndroidManifest.xml:7:28-65
action#android.intent.action.MAIN
ADDED from D:\profixApp\platforms\android\app\src\main\AndroidManifest.xml:8:17-69
	android:name
		ADDED from D:\profixApp\platforms\android\app\src\main\AndroidManifest.xml:8:25-66
category#android.intent.category.LAUNCHER
ADDED from D:\profixApp\platforms\android\app\src\main\AndroidManifest.xml:9:17-77
	android:name
		ADDED from D:\profixApp\platforms\android\app\src\main\AndroidManifest.xml:9:27-74
activity#com.gae.scaffolder.plugin.FCMPluginActivity
ADDED from D:\profixApp\platforms\android\app\src\main\AndroidManifest.xml:12:9-17:20
	android:launchMode
		ADDED from D:\profixApp\platforms\android\app\src\main\AndroidManifest.xml:12:43-73
	android:exported
		ADDED from D:\profixApp\platforms\android\app\src\main\AndroidManifest.xml:12:19-42
	android:name
		ADDED from D:\profixApp\platforms\android\app\src\main\AndroidManifest.xml:12:74-132
intent-filter#FCM_PLUGIN_ACTIVITY+android.intent.category.DEFAULT
ADDED from D:\profixApp\platforms\android\app\src\main\AndroidManifest.xml:13:13-16:29
action#FCM_PLUGIN_ACTIVITY
ADDED from D:\profixApp\platforms\android\app\src\main\AndroidManifest.xml:14:17-62
	android:name
		ADDED from D:\profixApp\platforms\android\app\src\main\AndroidManifest.xml:14:25-59
category#android.intent.category.DEFAULT
ADDED from D:\profixApp\platforms\android\app\src\main\AndroidManifest.xml:15:17-76
	android:name
		ADDED from D:\profixApp\platforms\android\app\src\main\AndroidManifest.xml:15:27-73
service#com.gae.scaffolder.plugin.MyFirebaseMessagingService
ADDED from D:\profixApp\platforms\android\app\src\main\AndroidManifest.xml:18:9-22:19
	android:name
		ADDED from D:\profixApp\platforms\android\app\src\main\AndroidManifest.xml:18:18-85
intent-filter#com.google.firebase.MESSAGING_EVENT
ADDED from D:\profixApp\platforms\android\app\src\main\AndroidManifest.xml:19:13-21:29
action#com.google.firebase.MESSAGING_EVENT
ADDED from D:\profixApp\platforms\android\app\src\main\AndroidManifest.xml:20:17-78
	android:name
		ADDED from D:\profixApp\platforms\android\app\src\main\AndroidManifest.xml:20:25-75
service#com.gae.scaffolder.plugin.MyFirebaseInstanceIDService
ADDED from D:\profixApp\platforms\android\app\src\main\AndroidManifest.xml:23:9-27:19
	android:name
		ADDED from D:\profixApp\platforms\android\app\src\main\AndroidManifest.xml:23:18-86
intent-filter#com.google.firebase.INSTANCE_ID_EVENT
ADDED from D:\profixApp\platforms\android\app\src\main\AndroidManifest.xml:24:13-26:29
action#com.google.firebase.INSTANCE_ID_EVENT
ADDED from D:\profixApp\platforms\android\app\src\main\AndroidManifest.xml:25:17-80
	android:name
		ADDED from D:\profixApp\platforms\android\app\src\main\AndroidManifest.xml:25:25-77
activity#me.nereo.multi_image_selector.MultiImageSelectorActivity
ADDED from D:\profixApp\platforms\android\app\src\main\AndroidManifest.xml:31:9-184
	android:configChanges
		ADDED from D:\profixApp\platforms\android\app\src\main\AndroidManifest.xml:31:19-65
	android:theme
		ADDED from D:\profixApp\platforms\android\app\src\main\AndroidManifest.xml:31:138-181
	android:name
		ADDED from D:\profixApp\platforms\android\app\src\main\AndroidManifest.xml:31:66-137
uses-sdk
ADDED from D:\profixApp\platforms\android\app\src\main\AndroidManifest.xml:33:5-74
INJECTED from D:\profixApp\platforms\android\app\src\main\AndroidManifest.xml:33:5-74
MERGED from [com.google.firebase:firebase-core:10.2.6] C:\Users\viva\.gradle\caches\transforms-1\files-1.1\firebase-core-10.2.6.aar\61ee53f593db94bf593c4e5b3d01e20e\AndroidManifest.xml:4:5-43
MERGED from [com.google.firebase:firebase-core:10.2.6] C:\Users\viva\.gradle\caches\transforms-1\files-1.1\firebase-core-10.2.6.aar\61ee53f593db94bf593c4e5b3d01e20e\AndroidManifest.xml:4:5-43
MERGED from [com.google.firebase:firebase-messaging:10.2.6] C:\Users\viva\.gradle\caches\transforms-1\files-1.1\firebase-messaging-10.2.6.aar\1339668ab1828b1c8fb65d6b5f834601\AndroidManifest.xml:17:5-43
MERGED from [com.google.firebase:firebase-messaging:10.2.6] C:\Users\viva\.gradle\caches\transforms-1\files-1.1\firebase-messaging-10.2.6.aar\1339668ab1828b1c8fb65d6b5f834601\AndroidManifest.xml:17:5-43
MERGED from [com.dmcBig:mediapicker:3.2] C:\Users\viva\.gradle\caches\transforms-1\files-1.1\mediapicker-3.2.aar\cad161de90bd45387faa107925c6114a\AndroidManifest.xml:7:5-9:41
MERGED from [com.dmcBig:mediapicker:3.2] C:\Users\viva\.gradle\caches\transforms-1\files-1.1\mediapicker-3.2.aar\cad161de90bd45387faa107925c6114a\AndroidManifest.xml:7:5-9:41
MERGED from [com.google.firebase:firebase-analytics:10.2.6] C:\Users\viva\.gradle\caches\transforms-1\files-1.1\firebase-analytics-10.2.6.aar\2703d2c55030dd418e6e3b0e61ae4d4e\AndroidManifest.xml:17:5-43
MERGED from [com.google.firebase:firebase-analytics:10.2.6] C:\Users\viva\.gradle\caches\transforms-1\files-1.1\firebase-analytics-10.2.6.aar\2703d2c55030dd418e6e3b0e61ae4d4e\AndroidManifest.xml:17:5-43
MERGED from [com.google.firebase:firebase-analytics-impl:10.2.6] C:\Users\viva\.gradle\caches\transforms-1\files-1.1\firebase-analytics-impl-10.2.6.aar\3b71f50b6e0a4b2fcc3bc1ee3c4c1abd\AndroidManifest.xml:17:5-43
MERGED from [com.google.firebase:firebase-analytics-impl:10.2.6] C:\Users\viva\.gradle\caches\transforms-1\files-1.1\firebase-analytics-impl-10.2.6.aar\3b71f50b6e0a4b2fcc3bc1ee3c4c1abd\AndroidManifest.xml:17:5-43
MERGED from [com.google.firebase:firebase-iid:10.2.6] C:\Users\viva\.gradle\caches\transforms-1\files-1.1\firebase-iid-10.2.6.aar\43e55bb9963e8187f8e85b352a17841e\AndroidManifest.xml:17:5-43
MERGED from [com.google.firebase:firebase-iid:10.2.6] C:\Users\viva\.gradle\caches\transforms-1\files-1.1\firebase-iid-10.2.6.aar\43e55bb9963e8187f8e85b352a17841e\AndroidManifest.xml:17:5-43
MERGED from [com.google.firebase:firebase-common:10.2.6] C:\Users\viva\.gradle\caches\transforms-1\files-1.1\firebase-common-10.2.6.aar\fe10682d0031f0ed4632017af6d74028\AndroidManifest.xml:3:5-43
MERGED from [com.google.firebase:firebase-common:10.2.6] C:\Users\viva\.gradle\caches\transforms-1\files-1.1\firebase-common-10.2.6.aar\fe10682d0031f0ed4632017af6d74028\AndroidManifest.xml:3:5-43
MERGED from [com.google.android.gms:play-services-tasks:10.2.6] C:\Users\viva\.gradle\caches\transforms-1\files-1.1\play-services-tasks-10.2.6.aar\08e180117840da06717317d292586654\AndroidManifest.xml:3:5-43
MERGED from [com.google.android.gms:play-services-tasks:10.2.6] C:\Users\viva\.gradle\caches\transforms-1\files-1.1\play-services-tasks-10.2.6.aar\08e180117840da06717317d292586654\AndroidManifest.xml:3:5-43
MERGED from [com.google.android.gms:play-services-basement:10.2.6] C:\Users\viva\.gradle\caches\transforms-1\files-1.1\play-services-basement-10.2.6.aar\d1b74aa498130f666febb84c4ddfce93\AndroidManifest.xml:17:5-43
MERGED from [com.google.android.gms:play-services-basement:10.2.6] C:\Users\viva\.gradle\caches\transforms-1\files-1.1\play-services-basement-10.2.6.aar\d1b74aa498130f666febb84c4ddfce93\AndroidManifest.xml:17:5-43
MERGED from [com.github.chrisbanes.photoview:library:1.2.4] C:\Users\viva\.gradle\caches\transforms-1\files-1.1\library-1.2.4.aar\651c46c16a697b65f6d4a6388269cf18\AndroidManifest.xml:7:5-9:41
MERGED from [com.github.chrisbanes.photoview:library:1.2.4] C:\Users\viva\.gradle\caches\transforms-1\files-1.1\library-1.2.4.aar\651c46c16a697b65f6d4a6388269cf18\AndroidManifest.xml:7:5-9:41
MERGED from [com.android.support:appcompat-v7:25.3.1] C:\Users\viva\.gradle\caches\transforms-1\files-1.1\appcompat-v7-25.3.1.aar\dabd7c2681ed9cfbbe7642b19d1f301a\AndroidManifest.xml:21:5-23:78
MERGED from [com.android.support:appcompat-v7:25.3.1] C:\Users\viva\.gradle\caches\transforms-1\files-1.1\appcompat-v7-25.3.1.aar\dabd7c2681ed9cfbbe7642b19d1f301a\AndroidManifest.xml:21:5-23:78
MERGED from [com.android.support:support-v4:27.1.1] C:\Users\viva\.gradle\caches\transforms-1\files-1.1\support-v4-27.1.1.aar\b3b2696ffe704867bb1fb6a638a673bc\AndroidManifest.xml:20:5-44
MERGED from [com.android.support:support-v4:27.1.1] C:\Users\viva\.gradle\caches\transforms-1\files-1.1\support-v4-27.1.1.aar\b3b2696ffe704867bb1fb6a638a673bc\AndroidManifest.xml:20:5-44
MERGED from [:CordovaLib] D:\profixApp\platforms\android\CordovaLib\build\intermediates\manifests\full\debug\AndroidManifest.xml:25:5-44
MERGED from [:CordovaLib] D:\profixApp\platforms\android\CordovaLib\build\intermediates\manifests\full\debug\AndroidManifest.xml:25:5-44
MERGED from [com.android.support:recyclerview-v7:25.3.1] C:\Users\viva\.gradle\caches\transforms-1\files-1.1\recyclerview-v7-25.3.1.aar\501e2e0ca12c66f8e037e3765611c7c7\AndroidManifest.xml:20:5-43
MERGED from [com.android.support:recyclerview-v7:25.3.1] C:\Users\viva\.gradle\caches\transforms-1\files-1.1\recyclerview-v7-25.3.1.aar\501e2e0ca12c66f8e037e3765611c7c7\AndroidManifest.xml:20:5-43
MERGED from [com.android.support:support-media-compat:27.1.1] C:\Users\viva\.gradle\caches\transforms-1\files-1.1\support-media-compat-27.1.1.aar\cea39c389dbe50a0a15d43db2023ce8b\AndroidManifest.xml:20:5-44
MERGED from [com.android.support:support-media-compat:27.1.1] C:\Users\viva\.gradle\caches\transforms-1\files-1.1\support-media-compat-27.1.1.aar\cea39c389dbe50a0a15d43db2023ce8b\AndroidManifest.xml:20:5-44
MERGED from [com.android.support:support-fragment:27.1.1] C:\Users\viva\.gradle\caches\transforms-1\files-1.1\support-fragment-27.1.1.aar\77fb7276bd24ff283aa1ecb211ce2528\AndroidManifest.xml:20:5-44
MERGED from [com.android.support:support-fragment:27.1.1] C:\Users\viva\.gradle\caches\transforms-1\files-1.1\support-fragment-27.1.1.aar\77fb7276bd24ff283aa1ecb211ce2528\AndroidManifest.xml:20:5-44
MERGED from [com.android.support:support-core-ui:27.1.1] C:\Users\viva\.gradle\caches\transforms-1\files-1.1\support-core-ui-27.1.1.aar\4ba73f6dd44e9a6266fc688314dcc3cb\AndroidManifest.xml:20:5-44
MERGED from [com.android.support:support-core-ui:27.1.1] C:\Users\viva\.gradle\caches\transforms-1\files-1.1\support-core-ui-27.1.1.aar\4ba73f6dd44e9a6266fc688314dcc3cb\AndroidManifest.xml:20:5-44
MERGED from [com.android.support:support-core-utils:27.1.1] C:\Users\viva\.gradle\caches\transforms-1\files-1.1\support-core-utils-27.1.1.aar\a3cb448e65e6f0dd57eea23c1ff11f44\AndroidManifest.xml:20:5-44
MERGED from [com.android.support:support-core-utils:27.1.1] C:\Users\viva\.gradle\caches\transforms-1\files-1.1\support-core-utils-27.1.1.aar\a3cb448e65e6f0dd57eea23c1ff11f44\AndroidManifest.xml:20:5-44
MERGED from [com.android.support:animated-vector-drawable:25.3.1] C:\Users\viva\.gradle\caches\transforms-1\files-1.1\animated-vector-drawable-25.3.1.aar\ea50d2e9a391af98d83ce90d9e5ae405\AndroidManifest.xml:20:5-44
MERGED from [com.android.support:animated-vector-drawable:25.3.1] C:\Users\viva\.gradle\caches\transforms-1\files-1.1\animated-vector-drawable-25.3.1.aar\ea50d2e9a391af98d83ce90d9e5ae405\AndroidManifest.xml:20:5-44
MERGED from [com.android.support:support-vector-drawable:25.3.1] C:\Users\viva\.gradle\caches\transforms-1\files-1.1\support-vector-drawable-25.3.1.aar\9773528cef13a3be6fc39b7019ef741b\AndroidManifest.xml:20:5-43
MERGED from [com.android.support:support-vector-drawable:25.3.1] C:\Users\viva\.gradle\caches\transforms-1\files-1.1\support-vector-drawable-25.3.1.aar\9773528cef13a3be6fc39b7019ef741b\AndroidManifest.xml:20:5-43
MERGED from [com.android.support:support-compat:27.1.1] C:\Users\viva\.gradle\caches\transforms-1\files-1.1\support-compat-27.1.1.aar\b76fbae6dc9788fdf4fba91cbfd79403\AndroidManifest.xml:20:5-44
MERGED from [com.android.support:support-compat:27.1.1] C:\Users\viva\.gradle\caches\transforms-1\files-1.1\support-compat-27.1.1.aar\b76fbae6dc9788fdf4fba91cbfd79403\AndroidManifest.xml:20:5-44
MERGED from [pub.devrel:easypermissions:1.0.0] C:\Users\viva\.gradle\caches\transforms-1\files-1.1\easypermissions-1.0.0.aar\7541521b85c1f24bcad9a9723a0ef4d0\AndroidManifest.xml:7:5-9:41
MERGED from [pub.devrel:easypermissions:1.0.0] C:\Users\viva\.gradle\caches\transforms-1\files-1.1\easypermissions-1.0.0.aar\7541521b85c1f24bcad9a9723a0ef4d0\AndroidManifest.xml:7:5-9:41
MERGED from [android.arch.lifecycle:livedata-core:1.1.0] C:\Users\viva\.gradle\caches\transforms-1\files-1.1\livedata-core-1.1.0.aar\842d37cf7cf62bfc246022c3d997a75d\AndroidManifest.xml:20:5-44
MERGED from [android.arch.lifecycle:livedata-core:1.1.0] C:\Users\viva\.gradle\caches\transforms-1\files-1.1\livedata-core-1.1.0.aar\842d37cf7cf62bfc246022c3d997a75d\AndroidManifest.xml:20:5-44
MERGED from [android.arch.lifecycle:viewmodel:1.1.0] C:\Users\viva\.gradle\caches\transforms-1\files-1.1\viewmodel-1.1.0.aar\a4e57d1dfbd75878d857c4e8649f10eb\AndroidManifest.xml:20:5-44
MERGED from [android.arch.lifecycle:viewmodel:1.1.0] C:\Users\viva\.gradle\caches\transforms-1\files-1.1\viewmodel-1.1.0.aar\a4e57d1dfbd75878d857c4e8649f10eb\AndroidManifest.xml:20:5-44
MERGED from [android.arch.lifecycle:runtime:1.1.0] C:\Users\viva\.gradle\caches\transforms-1\files-1.1\runtime-1.1.0.aar\265b45b6090759693f308fae6affab55\AndroidManifest.xml:20:5-44
MERGED from [android.arch.lifecycle:runtime:1.1.0] C:\Users\viva\.gradle\caches\transforms-1\files-1.1\runtime-1.1.0.aar\265b45b6090759693f308fae6affab55\AndroidManifest.xml:20:5-44
MERGED from [android.arch.core:runtime:1.1.0] C:\Users\viva\.gradle\caches\transforms-1\files-1.1\runtime-1.1.0.aar\063fa8672c6950108fbfd704f821bae1\AndroidManifest.xml:20:5-44
MERGED from [android.arch.core:runtime:1.1.0] C:\Users\viva\.gradle\caches\transforms-1\files-1.1\runtime-1.1.0.aar\063fa8672c6950108fbfd704f821bae1\AndroidManifest.xml:20:5-44
INJECTED from D:\profixApp\platforms\android\app\src\main\AndroidManifest.xml:33:5-74
	tools:overrideLibrary
		ADDED from [com.android.support:appcompat-v7:25.3.1] C:\Users\viva\.gradle\caches\transforms-1\files-1.1\appcompat-v7-25.3.1.aar\dabd7c2681ed9cfbbe7642b19d1f301a\AndroidManifest.xml:23:9-75
	android:targetSdkVersion
		ADDED from D:\profixApp\platforms\android\app\src\main\AndroidManifest.xml:33:42-71
	android:minSdkVersion
		ADDED from D:\profixApp\platforms\android\app\src\main\AndroidManifest.xml:33:15-41
		INJECTED from D:\profixApp\platforms\android\app\src\main\AndroidManifest.xml
		INJECTED from D:\profixApp\platforms\android\app\src\main\AndroidManifest.xml
uses-permission#android.permission.WRITE_EXTERNAL_STORAGE
ADDED from D:\profixApp\platforms\android\app\src\main\AndroidManifest.xml:34:5-81
MERGED from [com.dmcBig:mediapicker:3.2] C:\Users\viva\.gradle\caches\transforms-1\files-1.1\mediapicker-3.2.aar\cad161de90bd45387faa107925c6114a\AndroidManifest.xml:12:5-81
MERGED from [com.dmcBig:mediapicker:3.2] C:\Users\viva\.gradle\caches\transforms-1\files-1.1\mediapicker-3.2.aar\cad161de90bd45387faa107925c6114a\AndroidManifest.xml:12:5-81
	android:name
		ADDED from D:\profixApp\platforms\android\app\src\main\AndroidManifest.xml:34:22-78
uses-permission#android.permission.READ_EXTERNAL_STORAGE
ADDED from D:\profixApp\platforms\android\app\src\main\AndroidManifest.xml:35:5-80
MERGED from [com.dmcBig:mediapicker:3.2] C:\Users\viva\.gradle\caches\transforms-1\files-1.1\mediapicker-3.2.aar\cad161de90bd45387faa107925c6114a\AndroidManifest.xml:11:5-80
MERGED from [com.dmcBig:mediapicker:3.2] C:\Users\viva\.gradle\caches\transforms-1\files-1.1\mediapicker-3.2.aar\cad161de90bd45387faa107925c6114a\AndroidManifest.xml:11:5-80
	android:name
		ADDED from D:\profixApp\platforms\android\app\src\main\AndroidManifest.xml:35:22-77
uses-permission#android.permission.RECORD_AUDIO
ADDED from D:\profixApp\platforms\android\app\src\main\AndroidManifest.xml:36:5-71
	android:name
		ADDED from D:\profixApp\platforms\android\app\src\main\AndroidManifest.xml:36:22-68
uses-permission#android.permission.RECORD_VIDEO
ADDED from D:\profixApp\platforms\android\app\src\main\AndroidManifest.xml:37:5-71
	android:name
		ADDED from D:\profixApp\platforms\android\app\src\main\AndroidManifest.xml:37:22-68
meta-data#android.support.FILE_PROVIDER_PATHS
ADDED from D:\profixApp\platforms\android\app\src\main\AndroidManifest.xml:29:13-123
	android:resource
		ADDED from D:\profixApp\platforms\android\app\src\main\AndroidManifest.xml:29:75-120
	android:name
		ADDED from D:\profixApp\platforms\android\app\src\main\AndroidManifest.xml:29:24-74
service#com.google.firebase.messaging.FirebaseMessagingService
ADDED from [com.google.firebase:firebase-messaging:10.2.6] C:\Users\viva\.gradle\caches\transforms-1\files-1.1\firebase-messaging-10.2.6.aar\1339668ab1828b1c8fb65d6b5f834601\AndroidManifest.xml:23:9-27:19
	android:exported
		ADDED from [com.google.firebase:firebase-messaging:10.2.6] C:\Users\viva\.gradle\caches\transforms-1\files-1.1\firebase-messaging-10.2.6.aar\1339668ab1828b1c8fb65d6b5f834601\AndroidManifest.xml:23:88-111
	android:name
		ADDED from [com.google.firebase:firebase-messaging:10.2.6] C:\Users\viva\.gradle\caches\transforms-1\files-1.1\firebase-messaging-10.2.6.aar\1339668ab1828b1c8fb65d6b5f834601\AndroidManifest.xml:23:18-87
provider#com.dmcbig.mediapicker.utils.DmcFileProvider
ADDED from [com.dmcBig:mediapicker:3.2] C:\Users\viva\.gradle\caches\transforms-1\files-1.1\mediapicker-3.2.aar\cad161de90bd45387faa107925c6114a\AndroidManifest.xml:17:9-25:20
	android:grantUriPermissions
		ADDED from [com.dmcBig:mediapicker:3.2] C:\Users\viva\.gradle\caches\transforms-1\files-1.1\mediapicker-3.2.aar\cad161de90bd45387faa107925c6114a\AndroidManifest.xml:21:13-47
	android:authorities
		ADDED from [com.dmcBig:mediapicker:3.2] C:\Users\viva\.gradle\caches\transforms-1\files-1.1\mediapicker-3.2.aar\cad161de90bd45387faa107925c6114a\AndroidManifest.xml:19:13-55
	android:exported
		ADDED from [com.dmcBig:mediapicker:3.2] C:\Users\viva\.gradle\caches\transforms-1\files-1.1\mediapicker-3.2.aar\cad161de90bd45387faa107925c6114a\AndroidManifest.xml:20:13-37
	android:name
		ADDED from [com.dmcBig:mediapicker:3.2] C:\Users\viva\.gradle\caches\transforms-1\files-1.1\mediapicker-3.2.aar\cad161de90bd45387faa107925c6114a\AndroidManifest.xml:18:13-72
activity#com.dmcbig.mediapicker.PickerActivity
ADDED from [com.dmcBig:mediapicker:3.2] C:\Users\viva\.gradle\caches\transforms-1\files-1.1\mediapicker-3.2.aar\cad161de90bd45387faa107925c6114a\AndroidManifest.xml:27:9-31:63
	android:windowSoftInputMode
		ADDED from [com.dmcBig:mediapicker:3.2] C:\Users\viva\.gradle\caches\transforms-1\files-1.1\mediapicker-3.2.aar\cad161de90bd45387faa107925c6114a\AndroidManifest.xml:31:13-60
	android:configChanges
		ADDED from [com.dmcBig:mediapicker:3.2] C:\Users\viva\.gradle\caches\transforms-1\files-1.1\mediapicker-3.2.aar\cad161de90bd45387faa107925c6114a\AndroidManifest.xml:29:13-59
	android:theme
		ADDED from [com.dmcBig:mediapicker:3.2] C:\Users\viva\.gradle\caches\transforms-1\files-1.1\mediapicker-3.2.aar\cad161de90bd45387faa107925c6114a\AndroidManifest.xml:30:13-63
	android:name
		ADDED from [com.dmcBig:mediapicker:3.2] C:\Users\viva\.gradle\caches\transforms-1\files-1.1\mediapicker-3.2.aar\cad161de90bd45387faa107925c6114a\AndroidManifest.xml:28:13-65
activity#com.dmcbig.mediapicker.PreviewActivity
ADDED from [com.dmcBig:mediapicker:3.2] C:\Users\viva\.gradle\caches\transforms-1\files-1.1\mediapicker-3.2.aar\cad161de90bd45387faa107925c6114a\AndroidManifest.xml:32:9-36:63
	android:windowSoftInputMode
		ADDED from [com.dmcBig:mediapicker:3.2] C:\Users\viva\.gradle\caches\transforms-1\files-1.1\mediapicker-3.2.aar\cad161de90bd45387faa107925c6114a\AndroidManifest.xml:36:13-60
	android:configChanges
		ADDED from [com.dmcBig:mediapicker:3.2] C:\Users\viva\.gradle\caches\transforms-1\files-1.1\mediapicker-3.2.aar\cad161de90bd45387faa107925c6114a\AndroidManifest.xml:34:13-59
	android:theme
		ADDED from [com.dmcBig:mediapicker:3.2] C:\Users\viva\.gradle\caches\transforms-1\files-1.1\mediapicker-3.2.aar\cad161de90bd45387faa107925c6114a\AndroidManifest.xml:35:13-63
	android:name
		ADDED from [com.dmcBig:mediapicker:3.2] C:\Users\viva\.gradle\caches\transforms-1\files-1.1\mediapicker-3.2.aar\cad161de90bd45387faa107925c6114a\AndroidManifest.xml:33:13-66
activity#com.dmcbig.mediapicker.TakePhotoActivity
ADDED from [com.dmcBig:mediapicker:3.2] C:\Users\viva\.gradle\caches\transforms-1\files-1.1\mediapicker-3.2.aar\cad161de90bd45387faa107925c6114a\AndroidManifest.xml:37:9-41:63
	android:windowSoftInputMode
		ADDED from [com.dmcBig:mediapicker:3.2] C:\Users\viva\.gradle\caches\transforms-1\files-1.1\mediapicker-3.2.aar\cad161de90bd45387faa107925c6114a\AndroidManifest.xml:41:13-60
	android:configChanges
		ADDED from [com.dmcBig:mediapicker:3.2] C:\Users\viva\.gradle\caches\transforms-1\files-1.1\mediapicker-3.2.aar\cad161de90bd45387faa107925c6114a\AndroidManifest.xml:39:13-59
	android:theme
		ADDED from [com.dmcBig:mediapicker:3.2] C:\Users\viva\.gradle\caches\transforms-1\files-1.1\mediapicker-3.2.aar\cad161de90bd45387faa107925c6114a\AndroidManifest.xml:40:13-63
	android:name
		ADDED from [com.dmcBig:mediapicker:3.2] C:\Users\viva\.gradle\caches\transforms-1\files-1.1\mediapicker-3.2.aar\cad161de90bd45387faa107925c6114a\AndroidManifest.xml:38:13-68
uses-permission#android.permission.ACCESS_NETWORK_STATE
ADDED from [com.google.firebase:firebase-analytics:10.2.6] C:\Users\viva\.gradle\caches\transforms-1\files-1.1\firebase-analytics-10.2.6.aar\2703d2c55030dd418e6e3b0e61ae4d4e\AndroidManifest.xml:21:5-78
MERGED from [com.google.firebase:firebase-analytics-impl:10.2.6] C:\Users\viva\.gradle\caches\transforms-1\files-1.1\firebase-analytics-impl-10.2.6.aar\3b71f50b6e0a4b2fcc3bc1ee3c4c1abd\AndroidManifest.xml:21:5-78
MERGED from [com.google.firebase:firebase-analytics-impl:10.2.6] C:\Users\viva\.gradle\caches\transforms-1\files-1.1\firebase-analytics-impl-10.2.6.aar\3b71f50b6e0a4b2fcc3bc1ee3c4c1abd\AndroidManifest.xml:21:5-78
MERGED from [com.google.firebase:firebase-iid:10.2.6] C:\Users\viva\.gradle\caches\transforms-1\files-1.1\firebase-iid-10.2.6.aar\43e55bb9963e8187f8e85b352a17841e\AndroidManifest.xml:19:5-78
MERGED from [com.google.firebase:firebase-iid:10.2.6] C:\Users\viva\.gradle\caches\transforms-1\files-1.1\firebase-iid-10.2.6.aar\43e55bb9963e8187f8e85b352a17841e\AndroidManifest.xml:19:5-78
	android:name
		ADDED from [com.google.firebase:firebase-analytics:10.2.6] C:\Users\viva\.gradle\caches\transforms-1\files-1.1\firebase-analytics-10.2.6.aar\2703d2c55030dd418e6e3b0e61ae4d4e\AndroidManifest.xml:21:22-76
uses-permission#android.permission.WAKE_LOCK
ADDED from [com.google.firebase:firebase-analytics:10.2.6] C:\Users\viva\.gradle\caches\transforms-1\files-1.1\firebase-analytics-10.2.6.aar\2703d2c55030dd418e6e3b0e61ae4d4e\AndroidManifest.xml:22:5-67
MERGED from [com.google.firebase:firebase-analytics-impl:10.2.6] C:\Users\viva\.gradle\caches\transforms-1\files-1.1\firebase-analytics-impl-10.2.6.aar\3b71f50b6e0a4b2fcc3bc1ee3c4c1abd\AndroidManifest.xml:22:5-67
MERGED from [com.google.firebase:firebase-analytics-impl:10.2.6] C:\Users\viva\.gradle\caches\transforms-1\files-1.1\firebase-analytics-impl-10.2.6.aar\3b71f50b6e0a4b2fcc3bc1ee3c4c1abd\AndroidManifest.xml:22:5-67
MERGED from [com.google.firebase:firebase-iid:10.2.6] C:\Users\viva\.gradle\caches\transforms-1\files-1.1\firebase-iid-10.2.6.aar\43e55bb9963e8187f8e85b352a17841e\AndroidManifest.xml:21:5-67
MERGED from [com.google.firebase:firebase-iid:10.2.6] C:\Users\viva\.gradle\caches\transforms-1\files-1.1\firebase-iid-10.2.6.aar\43e55bb9963e8187f8e85b352a17841e\AndroidManifest.xml:21:5-67
	android:name
		ADDED from [com.google.firebase:firebase-analytics:10.2.6] C:\Users\viva\.gradle\caches\transforms-1\files-1.1\firebase-analytics-10.2.6.aar\2703d2c55030dd418e6e3b0e61ae4d4e\AndroidManifest.xml:22:22-65
receiver#com.google.android.gms.measurement.AppMeasurementReceiver
ADDED from [com.google.firebase:firebase-analytics:10.2.6] C:\Users\viva\.gradle\caches\transforms-1\files-1.1\firebase-analytics-10.2.6.aar\2703d2c55030dd418e6e3b0e61ae4d4e\AndroidManifest.xml:25:7-26:18
MERGED from [com.google.firebase:firebase-analytics-impl:10.2.6] C:\Users\viva\.gradle\caches\transforms-1\files-1.1\firebase-analytics-impl-10.2.6.aar\3b71f50b6e0a4b2fcc3bc1ee3c4c1abd\AndroidManifest.xml:25:7-26:18
MERGED from [com.google.firebase:firebase-analytics-impl:10.2.6] C:\Users\viva\.gradle\caches\transforms-1\files-1.1\firebase-analytics-impl-10.2.6.aar\3b71f50b6e0a4b2fcc3bc1ee3c4c1abd\AndroidManifest.xml:25:7-26:18
	android:enabled
		ADDED from [com.google.firebase:firebase-analytics:10.2.6] C:\Users\viva\.gradle\caches\transforms-1\files-1.1\firebase-analytics-10.2.6.aar\2703d2c55030dd418e6e3b0e61ae4d4e\AndroidManifest.xml:25:90-112
	android:exported
		ADDED from [com.google.firebase:firebase-analytics:10.2.6] C:\Users\viva\.gradle\caches\transforms-1\files-1.1\firebase-analytics-10.2.6.aar\2703d2c55030dd418e6e3b0e61ae4d4e\AndroidManifest.xml:25:113-137
	android:name
		ADDED from [com.google.firebase:firebase-analytics:10.2.6] C:\Users\viva\.gradle\caches\transforms-1\files-1.1\firebase-analytics-10.2.6.aar\2703d2c55030dd418e6e3b0e61ae4d4e\AndroidManifest.xml:25:17-89
receiver#com.google.android.gms.measurement.AppMeasurementInstallReferrerReceiver
ADDED from [com.google.firebase:firebase-analytics:10.2.6] C:\Users\viva\.gradle\caches\transforms-1\files-1.1\firebase-analytics-10.2.6.aar\2703d2c55030dd418e6e3b0e61ae4d4e\AndroidManifest.xml:27:7-31:18
	android:enabled
		ADDED from [com.google.firebase:firebase-analytics:10.2.6] C:\Users\viva\.gradle\caches\transforms-1\files-1.1\firebase-analytics-10.2.6.aar\2703d2c55030dd418e6e3b0e61ae4d4e\AndroidManifest.xml:27:162-184
	android:permission
		ADDED from [com.google.firebase:firebase-analytics:10.2.6] C:\Users\viva\.gradle\caches\transforms-1\files-1.1\firebase-analytics-10.2.6.aar\2703d2c55030dd418e6e3b0e61ae4d4e\AndroidManifest.xml:27:105-161
	android:name
		ADDED from [com.google.firebase:firebase-analytics:10.2.6] C:\Users\viva\.gradle\caches\transforms-1\files-1.1\firebase-analytics-10.2.6.aar\2703d2c55030dd418e6e3b0e61ae4d4e\AndroidManifest.xml:27:17-104
intent-filter#com.android.vending.INSTALL_REFERRER
ADDED from [com.google.firebase:firebase-analytics:10.2.6] C:\Users\viva\.gradle\caches\transforms-1\files-1.1\firebase-analytics-10.2.6.aar\2703d2c55030dd418e6e3b0e61ae4d4e\AndroidManifest.xml:28:11-30:27
action#com.android.vending.INSTALL_REFERRER
ADDED from [com.google.firebase:firebase-analytics:10.2.6] C:\Users\viva\.gradle\caches\transforms-1\files-1.1\firebase-analytics-10.2.6.aar\2703d2c55030dd418e6e3b0e61ae4d4e\AndroidManifest.xml:29:15-76
	android:name
		ADDED from [com.google.firebase:firebase-analytics:10.2.6] C:\Users\viva\.gradle\caches\transforms-1\files-1.1\firebase-analytics-10.2.6.aar\2703d2c55030dd418e6e3b0e61ae4d4e\AndroidManifest.xml:29:23-74
service#com.google.android.gms.measurement.AppMeasurementService
ADDED from [com.google.firebase:firebase-analytics:10.2.6] C:\Users\viva\.gradle\caches\transforms-1\files-1.1\firebase-analytics-10.2.6.aar\2703d2c55030dd418e6e3b0e61ae4d4e\AndroidManifest.xml:32:7-137
MERGED from [com.google.firebase:firebase-analytics-impl:10.2.6] C:\Users\viva\.gradle\caches\transforms-1\files-1.1\firebase-analytics-impl-10.2.6.aar\3b71f50b6e0a4b2fcc3bc1ee3c4c1abd\AndroidManifest.xml:27:7-137
MERGED from [com.google.firebase:firebase-analytics-impl:10.2.6] C:\Users\viva\.gradle\caches\transforms-1\files-1.1\firebase-analytics-impl-10.2.6.aar\3b71f50b6e0a4b2fcc3bc1ee3c4c1abd\AndroidManifest.xml:27:7-137
	android:enabled
		ADDED from [com.google.firebase:firebase-analytics:10.2.6] C:\Users\viva\.gradle\caches\transforms-1\files-1.1\firebase-analytics-10.2.6.aar\2703d2c55030dd418e6e3b0e61ae4d4e\AndroidManifest.xml:32:88-110
	android:exported
		ADDED from [com.google.firebase:firebase-analytics:10.2.6] C:\Users\viva\.gradle\caches\transforms-1\files-1.1\firebase-analytics-10.2.6.aar\2703d2c55030dd418e6e3b0e61ae4d4e\AndroidManifest.xml:32:111-135
	android:name
		ADDED from [com.google.firebase:firebase-analytics:10.2.6] C:\Users\viva\.gradle\caches\transforms-1\files-1.1\firebase-analytics-10.2.6.aar\2703d2c55030dd418e6e3b0e61ae4d4e\AndroidManifest.xml:32:16-87
uses-permission#com.google.android.c2dm.permission.RECEIVE
ADDED from [com.google.firebase:firebase-iid:10.2.6] C:\Users\viva\.gradle\caches\transforms-1\files-1.1\firebase-iid-10.2.6.aar\43e55bb9963e8187f8e85b352a17841e\AndroidManifest.xml:22:5-81
	android:name
		ADDED from [com.google.firebase:firebase-iid:10.2.6] C:\Users\viva\.gradle\caches\transforms-1\files-1.1\firebase-iid-10.2.6.aar\43e55bb9963e8187f8e85b352a17841e\AndroidManifest.xml:22:22-79
permission#${applicationId}.permission.C2D_MESSAGE
ADDED from [com.google.firebase:firebase-iid:10.2.6] C:\Users\viva\.gradle\caches\transforms-1\files-1.1\firebase-iid-10.2.6.aar\43e55bb9963e8187f8e85b352a17841e\AndroidManifest.xml:24:5-109
	android:protectionLevel
		ADDED from [com.google.firebase:firebase-iid:10.2.6] C:\Users\viva\.gradle\caches\transforms-1\files-1.1\firebase-iid-10.2.6.aar\43e55bb9963e8187f8e85b352a17841e\AndroidManifest.xml:24:72-107
	android:name
		ADDED from [com.google.firebase:firebase-iid:10.2.6] C:\Users\viva\.gradle\caches\transforms-1\files-1.1\firebase-iid-10.2.6.aar\43e55bb9963e8187f8e85b352a17841e\AndroidManifest.xml:24:17-71
permission#com.cordova.profixadmin.permission.C2D_MESSAGE
ADDED from [com.google.firebase:firebase-iid:10.2.6] C:\Users\viva\.gradle\caches\transforms-1\files-1.1\firebase-iid-10.2.6.aar\43e55bb9963e8187f8e85b352a17841e\AndroidManifest.xml:24:5-109
	android:protectionLevel
		ADDED from [com.google.firebase:firebase-iid:10.2.6] C:\Users\viva\.gradle\caches\transforms-1\files-1.1\firebase-iid-10.2.6.aar\43e55bb9963e8187f8e85b352a17841e\AndroidManifest.xml:24:72-107
	android:name
		ADDED from [com.google.firebase:firebase-iid:10.2.6] C:\Users\viva\.gradle\caches\transforms-1\files-1.1\firebase-iid-10.2.6.aar\43e55bb9963e8187f8e85b352a17841e\AndroidManifest.xml:24:17-71
uses-permission#${applicationId}.permission.C2D_MESSAGE
ADDED from [com.google.firebase:firebase-iid:10.2.6] C:\Users\viva\.gradle\caches\transforms-1\files-1.1\firebase-iid-10.2.6.aar\43e55bb9963e8187f8e85b352a17841e\AndroidManifest.xml:26:5-78
	android:name
		ADDED from [com.google.firebase:firebase-iid:10.2.6] C:\Users\viva\.gradle\caches\transforms-1\files-1.1\firebase-iid-10.2.6.aar\43e55bb9963e8187f8e85b352a17841e\AndroidManifest.xml:26:22-76
uses-permission#com.cordova.profixadmin.permission.C2D_MESSAGE
ADDED from [com.google.firebase:firebase-iid:10.2.6] C:\Users\viva\.gradle\caches\transforms-1\files-1.1\firebase-iid-10.2.6.aar\43e55bb9963e8187f8e85b352a17841e\AndroidManifest.xml:26:5-78
	android:name
		ADDED from [com.google.firebase:firebase-iid:10.2.6] C:\Users\viva\.gradle\caches\transforms-1\files-1.1\firebase-iid-10.2.6.aar\43e55bb9963e8187f8e85b352a17841e\AndroidManifest.xml:26:22-76
receiver#com.google.firebase.iid.FirebaseInstanceIdReceiver
ADDED from [com.google.firebase:firebase-iid:10.2.6] C:\Users\viva\.gradle\caches\transforms-1\files-1.1\firebase-iid-10.2.6.aar\43e55bb9963e8187f8e85b352a17841e\AndroidManifest.xml:30:9-35:20
	android:exported
		ADDED from [com.google.firebase:firebase-iid:10.2.6] C:\Users\viva\.gradle\caches\transforms-1\files-1.1\firebase-iid-10.2.6.aar\43e55bb9963e8187f8e85b352a17841e\AndroidManifest.xml:30:85-108
	android:permission
		ADDED from [com.google.firebase:firebase-iid:10.2.6] C:\Users\viva\.gradle\caches\transforms-1\files-1.1\firebase-iid-10.2.6.aar\43e55bb9963e8187f8e85b352a17841e\AndroidManifest.xml:30:109-169
	android:name
		ADDED from [com.google.firebase:firebase-iid:10.2.6] C:\Users\viva\.gradle\caches\transforms-1\files-1.1\firebase-iid-10.2.6.aar\43e55bb9963e8187f8e85b352a17841e\AndroidManifest.xml:30:19-84
intent-filter#${applicationId}+com.google.android.c2dm.intent.RECEIVE
ADDED from [com.google.firebase:firebase-iid:10.2.6] C:\Users\viva\.gradle\caches\transforms-1\files-1.1\firebase-iid-10.2.6.aar\43e55bb9963e8187f8e85b352a17841e\AndroidManifest.xml:31:13-34:29
intent-filter#com.cordova.profixadmin+com.google.android.c2dm.intent.RECEIVE
ADDED from [com.google.firebase:firebase-iid:10.2.6] C:\Users\viva\.gradle\caches\transforms-1\files-1.1\firebase-iid-10.2.6.aar\43e55bb9963e8187f8e85b352a17841e\AndroidManifest.xml:31:13-34:29
action#com.google.android.c2dm.intent.RECEIVE
ADDED from [com.google.firebase:firebase-iid:10.2.6] C:\Users\viva\.gradle\caches\transforms-1\files-1.1\firebase-iid-10.2.6.aar\43e55bb9963e8187f8e85b352a17841e\AndroidManifest.xml:32:17-80
	android:name
		ADDED from [com.google.firebase:firebase-iid:10.2.6] C:\Users\viva\.gradle\caches\transforms-1\files-1.1\firebase-iid-10.2.6.aar\43e55bb9963e8187f8e85b352a17841e\AndroidManifest.xml:32:25-78
category#${applicationId}
ADDED from [com.google.firebase:firebase-iid:10.2.6] C:\Users\viva\.gradle\caches\transforms-1\files-1.1\firebase-iid-10.2.6.aar\43e55bb9963e8187f8e85b352a17841e\AndroidManifest.xml:33:17-60
	android:name
		ADDED from [com.google.firebase:firebase-iid:10.2.6] C:\Users\viva\.gradle\caches\transforms-1\files-1.1\firebase-iid-10.2.6.aar\43e55bb9963e8187f8e85b352a17841e\AndroidManifest.xml:33:27-58
category#com.cordova.profixadmin
ADDED from [com.google.firebase:firebase-iid:10.2.6] C:\Users\viva\.gradle\caches\transforms-1\files-1.1\firebase-iid-10.2.6.aar\43e55bb9963e8187f8e85b352a17841e\AndroidManifest.xml:33:17-60
	android:name
		ADDED from [com.google.firebase:firebase-iid:10.2.6] C:\Users\viva\.gradle\caches\transforms-1\files-1.1\firebase-iid-10.2.6.aar\43e55bb9963e8187f8e85b352a17841e\AndroidManifest.xml:33:27-58
receiver#com.google.firebase.iid.FirebaseInstanceIdInternalReceiver
ADDED from [com.google.firebase:firebase-iid:10.2.6] C:\Users\viva\.gradle\caches\transforms-1\files-1.1\firebase-iid-10.2.6.aar\43e55bb9963e8187f8e85b352a17841e\AndroidManifest.xml:39:9-119
	android:exported
		ADDED from [com.google.firebase:firebase-iid:10.2.6] C:\Users\viva\.gradle\caches\transforms-1\files-1.1\firebase-iid-10.2.6.aar\43e55bb9963e8187f8e85b352a17841e\AndroidManifest.xml:39:93-117
	android:name
		ADDED from [com.google.firebase:firebase-iid:10.2.6] C:\Users\viva\.gradle\caches\transforms-1\files-1.1\firebase-iid-10.2.6.aar\43e55bb9963e8187f8e85b352a17841e\AndroidManifest.xml:39:19-92
service#com.google.firebase.iid.FirebaseInstanceIdService
ADDED from [com.google.firebase:firebase-iid:10.2.6] C:\Users\viva\.gradle\caches\transforms-1\files-1.1\firebase-iid-10.2.6.aar\43e55bb9963e8187f8e85b352a17841e\AndroidManifest.xml:43:9-47:19
	android:exported
		ADDED from [com.google.firebase:firebase-iid:10.2.6] C:\Users\viva\.gradle\caches\transforms-1\files-1.1\firebase-iid-10.2.6.aar\43e55bb9963e8187f8e85b352a17841e\AndroidManifest.xml:43:83-106
	android:name
		ADDED from [com.google.firebase:firebase-iid:10.2.6] C:\Users\viva\.gradle\caches\transforms-1\files-1.1\firebase-iid-10.2.6.aar\43e55bb9963e8187f8e85b352a17841e\AndroidManifest.xml:43:18-82
provider#com.google.firebase.provider.FirebaseInitProvider
ADDED from [com.google.firebase:firebase-common:10.2.6] C:\Users\viva\.gradle\caches\transforms-1\files-1.1\firebase-common-10.2.6.aar\fe10682d0031f0ed4632017af6d74028\AndroidManifest.xml:6:9-194
	android:authorities
		ADDED from [com.google.firebase:firebase-common:10.2.6] C:\Users\viva\.gradle\caches\transforms-1\files-1.1\firebase-common-10.2.6.aar\fe10682d0031f0ed4632017af6d74028\AndroidManifest.xml:6:19-78
	android:exported
		ADDED from [com.google.firebase:firebase-common:10.2.6] C:\Users\viva\.gradle\caches\transforms-1\files-1.1\firebase-common-10.2.6.aar\fe10682d0031f0ed4632017af6d74028\AndroidManifest.xml:6:144-168
	android:initOrder
		ADDED from [com.google.firebase:firebase-common:10.2.6] C:\Users\viva\.gradle\caches\transforms-1\files-1.1\firebase-common-10.2.6.aar\fe10682d0031f0ed4632017af6d74028\AndroidManifest.xml:6:169-192
	android:name
		ADDED from [com.google.firebase:firebase-common:10.2.6] C:\Users\viva\.gradle\caches\transforms-1\files-1.1\firebase-common-10.2.6.aar\fe10682d0031f0ed4632017af6d74028\AndroidManifest.xml:6:79-143
meta-data#com.google.android.gms.version
ADDED from [com.google.android.gms:play-services-basement:10.2.6] C:\Users\viva\.gradle\caches\transforms-1\files-1.1\play-services-basement-10.2.6.aar\d1b74aa498130f666febb84c4ddfce93\AndroidManifest.xml:20:9-121
	android:value
		ADDED from [com.google.android.gms:play-services-basement:10.2.6] C:\Users\viva\.gradle\caches\transforms-1\files-1.1\play-services-basement-10.2.6.aar\d1b74aa498130f666febb84c4ddfce93\AndroidManifest.xml:20:66-119
	android:name
		ADDED from [com.google.android.gms:play-services-basement:10.2.6] C:\Users\viva\.gradle\caches\transforms-1\files-1.1\play-services-basement-10.2.6.aar\d1b74aa498130f666febb84c4ddfce93\AndroidManifest.xml:20:20-65
meta-data#android.support.VERSION
ADDED from [com.android.support:appcompat-v7:25.3.1] C:\Users\viva\.gradle\caches\transforms-1\files-1.1\appcompat-v7-25.3.1.aar\dabd7c2681ed9cfbbe7642b19d1f301a\AndroidManifest.xml:25:5-27:34
MERGED from [com.android.support:recyclerview-v7:25.3.1] C:\Users\viva\.gradle\caches\transforms-1\files-1.1\recyclerview-v7-25.3.1.aar\501e2e0ca12c66f8e037e3765611c7c7\AndroidManifest.xml:22:5-24:34
MERGED from [com.android.support:recyclerview-v7:25.3.1] C:\Users\viva\.gradle\caches\transforms-1\files-1.1\recyclerview-v7-25.3.1.aar\501e2e0ca12c66f8e037e3765611c7c7\AndroidManifest.xml:22:5-24:34
MERGED from [com.android.support:animated-vector-drawable:25.3.1] C:\Users\viva\.gradle\caches\transforms-1\files-1.1\animated-vector-drawable-25.3.1.aar\ea50d2e9a391af98d83ce90d9e5ae405\AndroidManifest.xml:22:5-24:34
MERGED from [com.android.support:animated-vector-drawable:25.3.1] C:\Users\viva\.gradle\caches\transforms-1\files-1.1\animated-vector-drawable-25.3.1.aar\ea50d2e9a391af98d83ce90d9e5ae405\AndroidManifest.xml:22:5-24:34
MERGED from [com.android.support:support-vector-drawable:25.3.1] C:\Users\viva\.gradle\caches\transforms-1\files-1.1\support-vector-drawable-25.3.1.aar\9773528cef13a3be6fc39b7019ef741b\AndroidManifest.xml:22:5-24:34
MERGED from [com.android.support:support-vector-drawable:25.3.1] C:\Users\viva\.gradle\caches\transforms-1\files-1.1\support-vector-drawable-25.3.1.aar\9773528cef13a3be6fc39b7019ef741b\AndroidManifest.xml:22:5-24:34
	android:value
		ADDED from [com.android.support:appcompat-v7:25.3.1] C:\Users\viva\.gradle\caches\transforms-1\files-1.1\appcompat-v7-25.3.1.aar\dabd7c2681ed9cfbbe7642b19d1f301a\AndroidManifest.xml:27:9-31
	android:name
		ADDED from [com.android.support:appcompat-v7:25.3.1] C:\Users\viva\.gradle\caches\transforms-1\files-1.1\appcompat-v7-25.3.1.aar\dabd7c2681ed9cfbbe7642b19d1f301a\AndroidManifest.xml:26:9-47
activity#pub.devrel.easypermissions.AppSettingsDialogHolderActivity
ADDED from [pub.devrel:easypermissions:1.0.0] C:\Users\viva\.gradle\caches\transforms-1\files-1.1\easypermissions-1.0.0.aar\7541521b85c1f24bcad9a9723a0ef4d0\AndroidManifest.xml:12:9-16:66
	android:label
		ADDED from [pub.devrel:easypermissions:1.0.0] C:\Users\viva\.gradle\caches\transforms-1\files-1.1\easypermissions-1.0.0.aar\7541521b85c1f24bcad9a9723a0ef4d0\AndroidManifest.xml:15:13-29
	android:exported
		ADDED from [pub.devrel:easypermissions:1.0.0] C:\Users\viva\.gradle\caches\transforms-1\files-1.1\easypermissions-1.0.0.aar\7541521b85c1f24bcad9a9723a0ef4d0\AndroidManifest.xml:14:13-37
	android:theme
		ADDED from [pub.devrel:easypermissions:1.0.0] C:\Users\viva\.gradle\caches\transforms-1\files-1.1\easypermissions-1.0.0.aar\7541521b85c1f24bcad9a9723a0ef4d0\AndroidManifest.xml:16:13-63
	android:name
		ADDED from [pub.devrel:easypermissions:1.0.0] C:\Users\viva\.gradle\caches\transforms-1\files-1.1\easypermissions-1.0.0.aar\7541521b85c1f24bcad9a9723a0ef4d0\AndroidManifest.xml:13:13-86
